D:\JavaProject\ego.parent\ego.service.impl\src\main\java\com\levi\mapper\TbOrderMapper.java
D:\JavaProject\ego.parent\ego.service.impl\src\main\java\com\levi\mapper\TbItemCatMapper.java
D:\JavaProject\ego.parent\ego.service.impl\src\main\java\com\levi\mapper\TbUserMapper.java
D:\JavaProject\ego.parent\ego.service.impl\src\main\java\com\levi\mapper\TbOrderItemMapper.java
D:\JavaProject\ego.parent\ego.service.impl\src\main\java\com\levi\dubbo\service\impl\TbItemDubboServiceImpl.java
D:\JavaProject\ego.parent\ego.service.impl\src\main\java\com\levi\mapper\TbItemParamItemMapper.java
D:\JavaProject\ego.parent\ego.service.impl\src\main\java\com\levi\mapper\TbItemParamMapper.java
D:\JavaProject\ego.parent\ego.service.impl\src\main\java\com\levi\mapper\TbItemDescMapper.java
D:\JavaProject\ego.parent\ego.service.impl\src\main\java\com\levi\mapper\TbOrderShippingMapper.java
D:\JavaProject\ego.parent\ego.service.impl\src\main\java\com\levi\mapper\TbItemMapper.java
D:\JavaProject\ego.parent\ego.service.impl\src\main\java\com\levi\mapper\TbContentCategoryMapper.java
D:\JavaProject\ego.parent\ego.service.impl\src\main\java\com\levi\mapper\TbContentMapper.java
D:\JavaProject\ego.parent\ego.service.impl\src\main\java\com\levi\test\Test.java
D:\JavaProject\ego.parent\ego.service.impl\src\main\java\com\levi\dubbo\service\impl\TbItemCatDubboServiceImpl.java
